[ {
  "syncTime" : 1680802245674,
  "certificateId" : "EZGDQ",
  "certificateName" : "Erzeugergemeinschaft DQ",
  "validFrom" : "01-01-2023",
  "sid" : "Sid7",
  "createdDate" : 1680732000000,
  "createdBy" : "Created By2",
  "validForCountry" : "DE",
  "stable" : "",
  "modifiedDate" : 1680732000000,
  "uniqueKeyValue" : "Unique Key Value2",
  "modifiedBy" : "Modified By4",
  "rowNumber" : 1,
  "validTo" : "31-12-2023"
}, {
  "syncTime" : 1680802245674,
  "certificateId" : "QS",
  "certificateName" : "Qualität und Sicherung",
  "validFrom" : "01-01-2023",
  "sid" : "Sid1",
  "createdDate" : 1680732000000,
  "createdBy" : "Created By9",
  "validForCountry" : "DE, NL",
  "stable" : "Stable1",
  "modifiedDate" : 1680732000000,
  "uniqueKeyValue" : "Unique Key Value6",
  "modifiedBy" : "Modified By5",
  "rowNumber" : 2,
  "validTo" : "31-12-2023"
}, {
  "syncTime" : 1680802245674,
  "certificateId" : "VTV",
  "certificateName" : "VTV",
  "validFrom" : "01-01-2023",
  "sid" : "Sid5",
  "createdDate" : 1680732000000,
  "createdBy" : "Created By8",
  "validForCountry" : "DE",
  "stable" : "Stable1",
  "modifiedDate" : 1680732000000,
  "uniqueKeyValue" : "Unique Key Value9",
  "modifiedBy" : "Modified By3",
  "rowNumber" : 3,
  "validTo" : "31-12-2023"
}, {
  "syncTime" : 1680802245674,
  "certificateId" : "Beter Voor",
  "certificateName" : "Beter Voor Mens, Natuur en Boer",
  "validFrom" : "01-01-2023",
  "sid" : "Sid8",
  "createdDate" : 1680732000000,
  "createdBy" : "Created By1",
  "validForCountry" : "NL",
  "stable" : "Stable4",
  "modifiedDate" : 1680732000000,
  "uniqueKeyValue" : "Unique Key Value5",
  "modifiedBy" : "Modified By2",
  "rowNumber" : 4,
  "validTo" : "31-12-2023"
}, {
  "syncTime" : 1680802245674,
  "certificateId" : "BLK 1*",
  "certificateName" : "Beter leven keurmerk 1 ster",
  "validFrom" : "01-01-2023",
  "sid" : "Sid9",
  "createdDate" : 1680732000000,
  "createdBy" : "Created By9",
  "validForCountry" : "NL",
  "stable" : "Stable3",
  "modifiedDate" : 1680732000000,
  "uniqueKeyValue" : "Unique Key Value8",
  "modifiedBy" : "Modified By2",
  "rowNumber" : 5,
  "validTo" : "31-12-2023"
}, {
  "syncTime" : 1680802245674,
  "certificateId" : "IKB",
  "certificateName" : "IKB",
  "validFrom" : "01-01-2023",
  "sid" : "Sid4",
  "createdDate" : 1680732000000,
  "createdBy" : "Created By9",
  "validForCountry" : "NL",
  "stable" : "Stable1",
  "modifiedDate" : 1680732000000,
  "uniqueKeyValue" : "Unique Key Value0",
  "modifiedBy" : "Modified By3",
  "rowNumber" : 6,
  "validTo" : "31-12-2023"
}, {
  "syncTime" : 1683213716586,
  "certificateId" : "Certificate ID0",
  "certificateName" : "Certificate name3",
  "validFrom" : 1683213716586,
  "sid" : "Sid2",
  "createdDate" : 1683213716586,
  "createdBy" : "Created By0",
  "validForCountry" : [ "Valid for country3", "Valid for country3", "Valid for country0" ],
  "stable" : "Stable2",
  "modifiedDate" : 1683213716586,
  "uniqueKeyValue" : "Unique Key Value0",
  "modifiedBy" : "Modified By0",
  "rowNumber" : 7,
  "validTo" : 1683213716586
}, {
  "syncTime" : 1683213716586,
  "certificateId" : "Certificate ID1",
  "certificateName" : "Certificate name1",
  "validFrom" : 1683213716586,
  "sid" : "Sid2",
  "createdDate" : 1683213716586,
  "createdBy" : "Created By0",
  "validForCountry" : [ "Valid for country0", "Valid for country2", "Valid for country1" ],
  "stable" : "Stable1",
  "modifiedDate" : 1683213716586,
  "uniqueKeyValue" : "Unique Key Value2",
  "modifiedBy" : "Modified By2",
  "rowNumber" : 8,
  "validTo" : 1683213716586
}, {
  "syncTime" : 1683213716586,
  "certificateId" : "Certificate ID0",
  "certificateName" : "Certificate name3",
  "validFrom" : 1683213716586,
  "sid" : "Sid2",
  "createdDate" : 1683213716586,
  "createdBy" : "Created By0",
  "validForCountry" : [ "Valid for country3", "Valid for country2", "Valid for country3" ],
  "stable" : "Stable2",
  "modifiedDate" : 1683213716586,
  "uniqueKeyValue" : "Unique Key Value1",
  "modifiedBy" : "Modified By1",
  "rowNumber" : 9,
  "validTo" : 1683213716586
}, {
  "syncTime" : 1683213716586,
  "certificateId" : "Certificate ID0",
  "certificateName" : "Certificate name0",
  "validFrom" : 1683213716586,
  "sid" : "Sid2",
  "createdDate" : 1683213716586,
  "createdBy" : "Created By0",
  "validForCountry" : [ "Valid for country3", "Valid for country2", "Valid for country0" ],
  "stable" : "Stable1",
  "modifiedDate" : 1683213716586,
  "uniqueKeyValue" : "Unique Key Value2",
  "modifiedBy" : "Modified By1",
  "rowNumber" : 10,
  "validTo" : 1683213716586
} ]